[
  {
    "country" : "Canada",
    "email" : "andrew@chinookcorp.com",
    "fax" : "+1 (780) 428-3457",
    "state" : "AB",
    "employeeId" : "1",
    "firstName" : "Andrew",
    "phone" : "+1 (780) 428-9482",
    "reportsToId" : null,
    "hireDate" : "2002-08-14 00:00:00",
    "address" : "11120 Jasper Ave NW",
    "title" : "General Manager",
    "postalCode" : "T5K 2N1",
    "birthDate" : "1962-02-18 00:00:00",
    "city" : "Edmonton",
    "lastName" : "Adams"
  },
  {
    "country" : "Canada",
    "email" : "nancy@chinookcorp.com",
    "fax" : "+1 (403) 262-3322",
    "state" : "AB",
    "employeeId" : "2",
    "firstName" : "Nancy",
    "phone" : "+1 (403) 262-3443",
    "reportsToId" : "1",
    "hireDate" : "2002-05-01 00:00:00",
    "address" : "825 8 Ave SW",
    "title" : "Sales Manager",
    "postalCode" : "T2P 2T3",
    "birthDate" : "1958-12-08 00:00:00",
    "city" : "Calgary",
    "lastName" : "Edwards"
  },
  {
    "country" : "Canada",
    "email" : "jane@chinookcorp.com",
    "fax" : "+1 (403) 262-6712",
    "state" : "AB",
    "employeeId" : "3",
    "firstName" : "Jane",
    "phone" : "+1 (403) 262-3443",
    "reportsToId" : "2",
    "hireDate" : "2002-04-01 00:00:00",
    "address" : "1111 6 Ave SW",
    "title" : "Sales Support Agent",
    "postalCode" : "T2P 5M5",
    "birthDate" : "1973-08-29 00:00:00",
    "city" : "Calgary",
    "lastName" : "Peacock"
  },
  {
    "country" : "Canada",
    "email" : "margaret@chinookcorp.com",
    "fax" : "+1 (403) 263-4289",
    "state" : "AB",
    "employeeId" : "4",
    "firstName" : "Margaret",
    "phone" : "+1 (403) 263-4423",
    "reportsToId" : "2",
    "hireDate" : "2003-05-03 00:00:00",
    "address" : "683 10 Street SW",
    "title" : "Sales Support Agent",
    "postalCode" : "T2P 5G3",
    "birthDate" : "1947-09-19 00:00:00",
    "city" : "Calgary",
    "lastName" : "Park"
  },
  {
    "country" : "Canada",
    "email" : "steve@chinookcorp.com",
    "fax" : "1 (780) 836-9543",
    "state" : "AB",
    "employeeId" : "5",
    "firstName" : "Steve",
    "phone" : "1 (780) 836-9987",
    "reportsToId" : "2",
    "hireDate" : "2003-10-17 00:00:00",
    "address" : "7727B 41 Ave",
    "title" : "Sales Support Agent",
    "postalCode" : "T3B 1Y7",
    "birthDate" : "1965-03-03 00:00:00",
    "city" : "Calgary",
    "lastName" : "Johnson"
  },
  {
    "country" : "Canada",
    "email" : "michael@chinookcorp.com",
    "fax" : "+1 (403) 246-9899",
    "state" : "AB",
    "employeeId" : "6",
    "firstName" : "Michael",
    "phone" : "+1 (403) 246-9887",
    "reportsToId" : "1",
    "hireDate" : "2003-10-17 00:00:00",
    "address" : "5827 Bowness Road NW",
    "title" : "IT Manager",
    "postalCode" : "T3B 0C5",
    "birthDate" : "1973-07-01 00:00:00",
    "city" : "Calgary",
    "lastName" : "Mitchell"
  },
  {
    "country" : "Canada",
    "email" : "robert@chinookcorp.com",
    "fax" : "+1 (403) 456-8485",
    "state" : "AB",
    "employeeId" : "7",
    "firstName" : "Robert",
    "phone" : "+1 (403) 456-9986",
    "reportsToId" : "6",
    "hireDate" : "2004-01-02 00:00:00",
    "address" : "590 Columbia Boulevard West",
    "title" : "IT Staff",
    "postalCode" : "T1K 5N8",
    "birthDate" : "1970-05-29 00:00:00",
    "city" : "Lethbridge",
    "lastName" : "King"
  },
  {
    "country" : "Canada",
    "email" : "laura@chinookcorp.com",
    "fax" : "+1 (403) 467-8772",
    "state" : "AB",
    "employeeId" : "8",
    "firstName" : "Laura",
    "phone" : "+1 (403) 467-3351",
    "reportsToId" : "6",
    "hireDate" : "2004-03-04 00:00:00",
    "address" : "923 7 ST NW",
    "title" : "IT Staff",
    "postalCode" : "T1H 1Y8",
    "birthDate" : "1968-01-09 00:00:00",
    "city" : "Lethbridge",
    "lastName" : "Callahan"
  }
]