[
  {
    "name" : "MPEG audio file",
    "mediaTypeId" : "1"
  },
  {
    "name" : "Protected AAC audio file",
    "mediaTypeId" : "2"
  },
  {
    "name" : "Protected MPEG-4 video file",
    "mediaTypeId" : "3"
  },
  {
    "name" : "Purchased AAC audio file",
    "mediaTypeId" : "4"
  },
  {
    "name" : "AAC audio file",
    "mediaTypeId" : "5"
  }
]