[
  {
    "albumId" : "1",
    "title" : "For Those About To Rock We Salute You",
    "artistId" : "1"
  },
  {
    "albumId" : "2",
    "title" : "Balls to the Wall",
    "artistId" : "2"
  },
  {
    "albumId" : "3",
    "title" : "Restless and Wild",
    "artistId" : "2"
  },
  {
    "albumId" : "4",
    "title" : "Let There Be Rock",
    "artistId" : "1"
  },
  {
    "albumId" : "5",
    "title" : "Big Ones",
    "artistId" : "3"
  },
  {
    "albumId" : "6",
    "title" : "Jagged Little Pill",
    "artistId" : "4"
  },
  {
    "albumId" : "7",
    "title" : "Facelift",
    "artistId" : "5"
  },
  {
    "albumId" : "8",
    "title" : "Warner 25 Anos",
    "artistId" : "6"
  },
  {
    "albumId" : "9",
    "title" : "Plays Metallica By Four Cellos",
    "artistId" : "7"
  },
  {
    "albumId" : "10",
    "title" : "Audioslave",
    "artistId" : "8"
  },
  {
    "albumId" : "11",
    "title" : "Out Of Exile",
    "artistId" : "8"
  },
  {
    "albumId" : "12",
    "title" : "BackBeat Soundtrack",
    "artistId" : "9"
  },
  {
    "albumId" : "13",
    "title" : "The Best Of Billy Cobham",
    "artistId" : "10"
  },
  {
    "albumId" : "14",
    "title" : "Alcohol Fueled Brewtality Live! [Disc 1]",
    "artistId" : "11"
  },
  {
    "albumId" : "15",
    "title" : "Alcohol Fueled Brewtality Live! [Disc 2]",
    "artistId" : "11"
  },
  {
    "albumId" : "16",
    "title" : "Black Sabbath",
    "artistId" : "12"
  },
  {
    "albumId" : "17",
    "title" : "Black Sabbath Vol. 4 (Remaster)",
    "artistId" : "12"
  },
  {
    "albumId" : "18",
    "title" : "Body Count",
    "artistId" : "13"
  },
  {
    "albumId" : "19",
    "title" : "Chemical Wedding",
    "artistId" : "14"
  },
  {
    "albumId" : "20",
    "title" : "The Best Of Buddy Guy - The Millenium Collection",
    "artistId" : "15"
  },
  {
    "albumId" : "21",
    "title" : "Prenda Minha",
    "artistId" : "16"
  },
  {
    "albumId" : "22",
    "title" : "Sozinho Remix Ao Vivo",
    "artistId" : "16"
  },
  {
    "albumId" : "23",
    "title" : "Minha Historia",
    "artistId" : "17"
  },
  {
    "albumId" : "24",
    "title" : "Afrociberdelia",
    "artistId" : "18"
  },
  {
    "albumId" : "25",
    "title" : "Da Lama Ao Caos",
    "artistId" : "18"
  },
  {
    "albumId" : "26",
    "title" : "Acústico MTV [Live]",
    "artistId" : "19"
  },
  {
    "albumId" : "27",
    "title" : "Cidade Negra - Hits",
    "artistId" : "19"
  },
  {
    "albumId" : "28",
    "title" : "Na Pista",
    "artistId" : "20"
  },
  {
    "albumId" : "29",
    "title" : "Axé Bahia 2001",
    "artistId" : "21"
  },
  {
    "albumId" : "30",
    "title" : "BBC Sessions [Disc 1] [Live]",
    "artistId" : "22"
  },
  {
    "albumId" : "31",
    "title" : "Bongo Fury",
    "artistId" : "23"
  },
  {
    "albumId" : "32",
    "title" : "Carnaval 2001",
    "artistId" : "21"
  },
  {
    "albumId" : "33",
    "title" : "Chill: Brazil (Disc 1)",
    "artistId" : "24"
  },
  {
    "albumId" : "34",
    "title" : "Chill: Brazil (Disc 2)",
    "artistId" : "6"
  },
  {
    "albumId" : "35",
    "title" : "Garage Inc. (Disc 1)",
    "artistId" : "50"
  },
  {
    "albumId" : "36",
    "title" : "Greatest Hits II",
    "artistId" : "51"
  },
  {
    "albumId" : "37",
    "title" : "Greatest Kiss",
    "artistId" : "52"
  },
  {
    "albumId" : "38",
    "title" : "Heart of the Night",
    "artistId" : "53"
  },
  {
    "albumId" : "39",
    "title" : "International Superhits",
    "artistId" : "54"
  },
  {
    "albumId" : "40",
    "title" : "Into The Light",
    "artistId" : "55"
  },
  {
    "albumId" : "41",
    "title" : "Meus Momentos",
    "artistId" : "56"
  },
  {
    "albumId" : "42",
    "title" : "Minha História",
    "artistId" : "57"
  },
  {
    "albumId" : "43",
    "title" : "MK III The Final Concerts [Disc 1]",
    "artistId" : "58"
  },
  {
    "albumId" : "44",
    "title" : "Physical Graffiti [Disc 1]",
    "artistId" : "22"
  },
  {
    "albumId" : "45",
    "title" : "Sambas De Enredo 2001",
    "artistId" : "21"
  },
  {
    "albumId" : "46",
    "title" : "Supernatural",
    "artistId" : "59"
  },
  {
    "albumId" : "47",
    "title" : "The Best of Ed Motta",
    "artistId" : "37"
  },
  {
    "albumId" : "48",
    "title" : "The Essential Miles Davis [Disc 1]",
    "artistId" : "68"
  },
  {
    "albumId" : "49",
    "title" : "The Essential Miles Davis [Disc 2]",
    "artistId" : "68"
  },
  {
    "albumId" : "50",
    "title" : "The Final Concerts (Disc 2)",
    "artistId" : "58"
  },
  {
    "albumId" : "51",
    "title" : "Up An' Atom",
    "artistId" : "69"
  },
  {
    "albumId" : "52",
    "title" : "Vinícius De Moraes - Sem Limite",
    "artistId" : "70"
  },
  {
    "albumId" : "53",
    "title" : "Vozes do MPB",
    "artistId" : "21"
  },
  {
    "albumId" : "54",
    "title" : "Chronicle, Vol. 1",
    "artistId" : "76"
  },
  {
    "albumId" : "55",
    "title" : "Chronicle, Vol. 2",
    "artistId" : "76"
  },
  {
    "albumId" : "56",
    "title" : "Cássia Eller - Coleção Sem Limite [Disc 2]",
    "artistId" : "77"
  },
  {
    "albumId" : "57",
    "title" : "Cássia Eller - Sem Limite [Disc 1]",
    "artistId" : "77"
  },
  {
    "albumId" : "58",
    "title" : "Come Taste The Band",
    "artistId" : "58"
  },
  {
    "albumId" : "59",
    "title" : "Deep Purple In Rock",
    "artistId" : "58"
  },
  {
    "albumId" : "60",
    "title" : "Fireball",
    "artistId" : "58"
  },
  {
    "albumId" : "61",
    "title" : "Knocking at Your Back Door: The Best Of Deep Purple in the 80's",
    "artistId" : "58"
  },
  {
    "albumId" : "62",
    "title" : "Machine Head",
    "artistId" : "58"
  },
  {
    "albumId" : "63",
    "title" : "Purpendicular",
    "artistId" : "58"
  },
  {
    "albumId" : "64",
    "title" : "Slaves And Masters",
    "artistId" : "58"
  },
  {
    "albumId" : "65",
    "title" : "Stormbringer",
    "artistId" : "58"
  },
  {
    "albumId" : "66",
    "title" : "The Battle Rages On",
    "artistId" : "58"
  },
  {
    "albumId" : "67",
    "title" : "Vault: Def Leppard's Greatest Hits",
    "artistId" : "78"
  },
  {
    "albumId" : "68",
    "title" : "Outbreak",
    "artistId" : "79"
  },
  {
    "albumId" : "69",
    "title" : "Djavan Ao Vivo - Vol. 02",
    "artistId" : "80"
  },
  {
    "albumId" : "70",
    "title" : "Djavan Ao Vivo - Vol. 1",
    "artistId" : "80"
  },
  {
    "albumId" : "71",
    "title" : "Elis Regina-Minha História",
    "artistId" : "41"
  },
  {
    "albumId" : "72",
    "title" : "The Cream Of Clapton",
    "artistId" : "81"
  },
  {
    "albumId" : "73",
    "title" : "Unplugged",
    "artistId" : "81"
  },
  {
    "albumId" : "74",
    "title" : "Album Of The Year",
    "artistId" : "82"
  },
  {
    "albumId" : "75",
    "title" : "Angel Dust",
    "artistId" : "82"
  },
  {
    "albumId" : "76",
    "title" : "King For A Day Fool For A Lifetime",
    "artistId" : "82"
  },
  {
    "albumId" : "77",
    "title" : "The Real Thing",
    "artistId" : "82"
  },
  {
    "albumId" : "78",
    "title" : "Deixa Entrar",
    "artistId" : "83"
  },
  {
    "albumId" : "79",
    "title" : "In Your Honor [Disc 1]",
    "artistId" : "84"
  },
  {
    "albumId" : "80",
    "title" : "In Your Honor [Disc 2]",
    "artistId" : "84"
  },
  {
    "albumId" : "81",
    "title" : "One By One",
    "artistId" : "84"
  },
  {
    "albumId" : "82",
    "title" : "The Colour And The Shape",
    "artistId" : "84"
  },
  {
    "albumId" : "83",
    "title" : "My Way: The Best Of Frank Sinatra [Disc 1]",
    "artistId" : "85"
  },
  {
    "albumId" : "84",
    "title" : "Roda De Funk",
    "artistId" : "86"
  },
  {
    "albumId" : "85",
    "title" : "As Canções de Eu Tu Eles",
    "artistId" : "27"
  },
  {
    "albumId" : "86",
    "title" : "Quanta Gente Veio Ver (Live)",
    "artistId" : "27"
  },
  {
    "albumId" : "87",
    "title" : "Quanta Gente Veio ver--Bônus De Carnaval",
    "artistId" : "27"
  },
  {
    "albumId" : "88",
    "title" : "Faceless",
    "artistId" : "87"
  },
  {
    "albumId" : "89",
    "title" : "American Idiot",
    "artistId" : "54"
  },
  {
    "albumId" : "90",
    "title" : "Appetite for Destruction",
    "artistId" : "88"
  },
  {
    "albumId" : "91",
    "title" : "Use Your Illusion I",
    "artistId" : "88"
  },
  {
    "albumId" : "92",
    "title" : "Use Your Illusion II",
    "artistId" : "88"
  },
  {
    "albumId" : "93",
    "title" : "Blue Moods",
    "artistId" : "89"
  },
  {
    "albumId" : "94",
    "title" : "A Matter of Life and Death",
    "artistId" : "90"
  },
  {
    "albumId" : "95",
    "title" : "A Real Dead One",
    "artistId" : "90"
  },
  {
    "albumId" : "96",
    "title" : "A Real Live One",
    "artistId" : "90"
  },
  {
    "albumId" : "97",
    "title" : "Brave New World",
    "artistId" : "90"
  },
  {
    "albumId" : "98",
    "title" : "Dance Of Death",
    "artistId" : "90"
  },
  {
    "albumId" : "99",
    "title" : "Fear Of The Dark",
    "artistId" : "90"
  },
  {
    "albumId" : "100",
    "title" : "Iron Maiden",
    "artistId" : "90"
  },
  {
    "albumId" : "101",
    "title" : "Killers",
    "artistId" : "90"
  },
  {
    "albumId" : "102",
    "title" : "Live After Death",
    "artistId" : "90"
  },
  {
    "albumId" : "103",
    "title" : "Live At Donington 1992 (Disc 1)",
    "artistId" : "90"
  },
  {
    "albumId" : "104",
    "title" : "Live At Donington 1992 (Disc 2)",
    "artistId" : "90"
  },
  {
    "albumId" : "105",
    "title" : "No Prayer For The Dying",
    "artistId" : "90"
  },
  {
    "albumId" : "106",
    "title" : "Piece Of Mind",
    "artistId" : "90"
  },
  {
    "albumId" : "107",
    "title" : "Powerslave",
    "artistId" : "90"
  },
  {
    "albumId" : "108",
    "title" : "Rock In Rio [CD1]",
    "artistId" : "90"
  },
  {
    "albumId" : "109",
    "title" : "Rock In Rio [CD2]",
    "artistId" : "90"
  },
  {
    "albumId" : "110",
    "title" : "Seventh Son of a Seventh Son",
    "artistId" : "90"
  },
  {
    "albumId" : "111",
    "title" : "Somewhere in Time",
    "artistId" : "90"
  },
  {
    "albumId" : "112",
    "title" : "The Number of The Beast",
    "artistId" : "90"
  },
  {
    "albumId" : "113",
    "title" : "The X Factor",
    "artistId" : "90"
  },
  {
    "albumId" : "114",
    "title" : "Virtual XI",
    "artistId" : "90"
  },
  {
    "albumId" : "115",
    "title" : "Sex Machine",
    "artistId" : "91"
  },
  {
    "albumId" : "116",
    "title" : "Emergency On Planet Earth",
    "artistId" : "92"
  },
  {
    "albumId" : "117",
    "title" : "Synkronized",
    "artistId" : "92"
  },
  {
    "albumId" : "118",
    "title" : "The Return Of The Space Cowboy",
    "artistId" : "92"
  },
  {
    "albumId" : "119",
    "title" : "Get Born",
    "artistId" : "93"
  },
  {
    "albumId" : "120",
    "title" : "Are You Experienced?",
    "artistId" : "94"
  },
  {
    "albumId" : "121",
    "title" : "Surfing with the Alien (Remastered)",
    "artistId" : "95"
  },
  {
    "albumId" : "122",
    "title" : "Jorge Ben Jor 25 Anos",
    "artistId" : "46"
  },
  {
    "albumId" : "123",
    "title" : "Jota Quest-1995",
    "artistId" : "96"
  },
  {
    "albumId" : "124",
    "title" : "Cafezinho",
    "artistId" : "97"
  },
  {
    "albumId" : "125",
    "title" : "Living After Midnight",
    "artistId" : "98"
  },
  {
    "albumId" : "126",
    "title" : "Unplugged [Live]",
    "artistId" : "52"
  },
  {
    "albumId" : "127",
    "title" : "BBC Sessions [Disc 2] [Live]",
    "artistId" : "22"
  },
  {
    "albumId" : "128",
    "title" : "Coda",
    "artistId" : "22"
  },
  {
    "albumId" : "129",
    "title" : "Houses Of The Holy",
    "artistId" : "22"
  },
  {
    "albumId" : "130",
    "title" : "In Through The Out Door",
    "artistId" : "22"
  },
  {
    "albumId" : "131",
    "title" : "IV",
    "artistId" : "22"
  },
  {
    "albumId" : "132",
    "title" : "Led Zeppelin I",
    "artistId" : "22"
  },
  {
    "albumId" : "133",
    "title" : "Led Zeppelin II",
    "artistId" : "22"
  },
  {
    "albumId" : "134",
    "title" : "Led Zeppelin III",
    "artistId" : "22"
  },
  {
    "albumId" : "135",
    "title" : "Physical Graffiti [Disc 2]",
    "artistId" : "22"
  },
  {
    "albumId" : "136",
    "title" : "Presence",
    "artistId" : "22"
  },
  {
    "albumId" : "137",
    "title" : "The Song Remains The Same (Disc 1)",
    "artistId" : "22"
  },
  {
    "albumId" : "138",
    "title" : "The Song Remains The Same (Disc 2)",
    "artistId" : "22"
  },
  {
    "albumId" : "139",
    "title" : "A TempestadeTempestade Ou O Livro Dos Dias",
    "artistId" : "99"
  },
  {
    "albumId" : "140",
    "title" : "Mais Do Mesmo",
    "artistId" : "99"
  },
  {
    "albumId" : "141",
    "title" : "Greatest Hits",
    "artistId" : "100"
  },
  {
    "albumId" : "142",
    "title" : "Lulu Santos - RCA 100 Anos De Música - Álbum 01",
    "artistId" : "101"
  },
  {
    "albumId" : "143",
    "title" : "Lulu Santos - RCA 100 Anos De Música - Álbum 02",
    "artistId" : "101"
  },
  {
    "albumId" : "144",
    "title" : "Misplaced Childhood",
    "artistId" : "102"
  },
  {
    "albumId" : "145",
    "title" : "Barulhinho Bom",
    "artistId" : "103"
  },
  {
    "albumId" : "146",
    "title" : "Seek And Shall Find: More Of The Best (1963-1981)",
    "artistId" : "104"
  },
  {
    "albumId" : "147",
    "title" : "The Best Of Men At Work",
    "artistId" : "105"
  },
  {
    "albumId" : "148",
    "title" : "Black Album",
    "artistId" : "50"
  },
  {
    "albumId" : "149",
    "title" : "Garage Inc. (Disc 2)",
    "artistId" : "50"
  },
  {
    "albumId" : "150",
    "title" : "Kill 'Em All",
    "artistId" : "50"
  },
  {
    "albumId" : "151",
    "title" : "Load",
    "artistId" : "50"
  },
  {
    "albumId" : "152",
    "title" : "Master Of Puppets",
    "artistId" : "50"
  },
  {
    "albumId" : "153",
    "title" : "ReLoad",
    "artistId" : "50"
  },
  {
    "albumId" : "154",
    "title" : "Ride The Lightning",
    "artistId" : "50"
  },
  {
    "albumId" : "155",
    "title" : "St. Anger",
    "artistId" : "50"
  },
  {
    "albumId" : "156",
    "title" : "...And Justice For All",
    "artistId" : "50"
  },
  {
    "albumId" : "157",
    "title" : "Miles Ahead",
    "artistId" : "68"
  },
  {
    "albumId" : "158",
    "title" : "Milton Nascimento Ao Vivo",
    "artistId" : "42"
  },
  {
    "albumId" : "159",
    "title" : "Minas",
    "artistId" : "42"
  },
  {
    "albumId" : "160",
    "title" : "Ace Of Spades",
    "artistId" : "106"
  },
  {
    "albumId" : "161",
    "title" : "Demorou...",
    "artistId" : "108"
  },
  {
    "albumId" : "162",
    "title" : "Motley Crue Greatest Hits",
    "artistId" : "109"
  },
  {
    "albumId" : "163",
    "title" : "From The Muddy Banks Of The Wishkah [Live]",
    "artistId" : "110"
  },
  {
    "albumId" : "164",
    "title" : "Nevermind",
    "artistId" : "110"
  },
  {
    "albumId" : "165",
    "title" : "Compositores",
    "artistId" : "111"
  },
  {
    "albumId" : "166",
    "title" : "Olodum",
    "artistId" : "112"
  },
  {
    "albumId" : "167",
    "title" : "Acústico MTV",
    "artistId" : "113"
  },
  {
    "albumId" : "168",
    "title" : "Arquivo II",
    "artistId" : "113"
  },
  {
    "albumId" : "169",
    "title" : "Arquivo Os Paralamas Do Sucesso",
    "artistId" : "113"
  },
  {
    "albumId" : "170",
    "title" : "Bark at the Moon (Remastered)",
    "artistId" : "114"
  },
  {
    "albumId" : "171",
    "title" : "Blizzard of Ozz",
    "artistId" : "114"
  },
  {
    "albumId" : "172",
    "title" : "Diary of a Madman (Remastered)",
    "artistId" : "114"
  },
  {
    "albumId" : "173",
    "title" : "No More Tears (Remastered)",
    "artistId" : "114"
  },
  {
    "albumId" : "174",
    "title" : "Tribute",
    "artistId" : "114"
  },
  {
    "albumId" : "175",
    "title" : "Walking Into Clarksdale",
    "artistId" : "115"
  },
  {
    "albumId" : "176",
    "title" : "Original Soundtracks 1",
    "artistId" : "116"
  },
  {
    "albumId" : "177",
    "title" : "The Beast Live",
    "artistId" : "117"
  },
  {
    "albumId" : "178",
    "title" : "Live On Two Legs [Live]",
    "artistId" : "118"
  },
  {
    "albumId" : "179",
    "title" : "Pearl Jam",
    "artistId" : "118"
  },
  {
    "albumId" : "180",
    "title" : "Riot Act",
    "artistId" : "118"
  },
  {
    "albumId" : "181",
    "title" : "Ten",
    "artistId" : "118"
  },
  {
    "albumId" : "182",
    "title" : "Vs.",
    "artistId" : "118"
  },
  {
    "albumId" : "183",
    "title" : "Dark Side Of The Moon",
    "artistId" : "120"
  },
  {
    "albumId" : "184",
    "title" : "Os Cães Ladram Mas A Caravana Não Pára",
    "artistId" : "121"
  },
  {
    "albumId" : "185",
    "title" : "Greatest Hits I",
    "artistId" : "51"
  },
  {
    "albumId" : "186",
    "title" : "News Of The World",
    "artistId" : "51"
  },
  {
    "albumId" : "187",
    "title" : "Out Of Time",
    "artistId" : "122"
  },
  {
    "albumId" : "188",
    "title" : "Green",
    "artistId" : "124"
  },
  {
    "albumId" : "189",
    "title" : "New Adventures In Hi-Fi",
    "artistId" : "124"
  },
  {
    "albumId" : "190",
    "title" : "The Best Of R.E.M.: The IRS Years",
    "artistId" : "124"
  },
  {
    "albumId" : "191",
    "title" : "Cesta Básica",
    "artistId" : "125"
  },
  {
    "albumId" : "192",
    "title" : "Raul Seixas",
    "artistId" : "126"
  },
  {
    "albumId" : "193",
    "title" : "Blood Sugar Sex Magik",
    "artistId" : "127"
  },
  {
    "albumId" : "194",
    "title" : "By The Way",
    "artistId" : "127"
  },
  {
    "albumId" : "195",
    "title" : "Californication",
    "artistId" : "127"
  },
  {
    "albumId" : "196",
    "title" : "Retrospective I (1974-1980)",
    "artistId" : "128"
  },
  {
    "albumId" : "197",
    "title" : "Santana - As Years Go By",
    "artistId" : "59"
  },
  {
    "albumId" : "198",
    "title" : "Santana Live",
    "artistId" : "59"
  },
  {
    "albumId" : "199",
    "title" : "Maquinarama",
    "artistId" : "130"
  },
  {
    "albumId" : "200",
    "title" : "O Samba Poconé",
    "artistId" : "130"
  },
  {
    "albumId" : "201",
    "title" : "Judas 0: B-Sides and Rarities",
    "artistId" : "131"
  },
  {
    "albumId" : "202",
    "title" : "Rotten Apples: Greatest Hits",
    "artistId" : "131"
  },
  {
    "albumId" : "203",
    "title" : "A-Sides",
    "artistId" : "132"
  },
  {
    "albumId" : "204",
    "title" : "Morning Dance",
    "artistId" : "53"
  },
  {
    "albumId" : "205",
    "title" : "In Step",
    "artistId" : "133"
  },
  {
    "albumId" : "206",
    "title" : "Core",
    "artistId" : "134"
  },
  {
    "albumId" : "207",
    "title" : "Mezmerize",
    "artistId" : "135"
  },
  {
    "albumId" : "208",
    "title" : "[1997] Black Light Syndrome",
    "artistId" : "136"
  },
  {
    "albumId" : "209",
    "title" : "Live [Disc 1]",
    "artistId" : "137"
  },
  {
    "albumId" : "210",
    "title" : "Live [Disc 2]",
    "artistId" : "137"
  },
  {
    "albumId" : "211",
    "title" : "The Singles",
    "artistId" : "138"
  },
  {
    "albumId" : "212",
    "title" : "Beyond Good And Evil",
    "artistId" : "139"
  },
  {
    "albumId" : "213",
    "title" : "Pure Cult: The Best Of The Cult (For Rockers, Ravers, Lovers & Sinners) [UK]",
    "artistId" : "139"
  },
  {
    "albumId" : "214",
    "title" : "The Doors",
    "artistId" : "140"
  },
  {
    "albumId" : "215",
    "title" : "The Police Greatest Hits",
    "artistId" : "141"
  },
  {
    "albumId" : "216",
    "title" : "Hot Rocks, 1964-1971 (Disc 1)",
    "artistId" : "142"
  },
  {
    "albumId" : "217",
    "title" : "No Security",
    "artistId" : "142"
  },
  {
    "albumId" : "218",
    "title" : "Voodoo Lounge",
    "artistId" : "142"
  },
  {
    "albumId" : "219",
    "title" : "Tangents",
    "artistId" : "143"
  },
  {
    "albumId" : "220",
    "title" : "Transmission",
    "artistId" : "143"
  },
  {
    "albumId" : "221",
    "title" : "My Generation - The Very Best Of The Who",
    "artistId" : "144"
  },
  {
    "albumId" : "222",
    "title" : "Serie Sem Limite (Disc 1)",
    "artistId" : "145"
  },
  {
    "albumId" : "223",
    "title" : "Serie Sem Limite (Disc 2)",
    "artistId" : "145"
  },
  {
    "albumId" : "224",
    "title" : "Acústico",
    "artistId" : "146"
  },
  {
    "albumId" : "225",
    "title" : "Volume Dois",
    "artistId" : "146"
  },
  {
    "albumId" : "226",
    "title" : "Battlestar Galactica: The Story So Far",
    "artistId" : "147"
  },
  {
    "albumId" : "227",
    "title" : "Battlestar Galactica, Season 3",
    "artistId" : "147"
  },
  {
    "albumId" : "228",
    "title" : "Heroes, Season 1",
    "artistId" : "148"
  },
  {
    "albumId" : "229",
    "title" : "Lost, Season 3",
    "artistId" : "149"
  },
  {
    "albumId" : "230",
    "title" : "Lost, Season 1",
    "artistId" : "149"
  },
  {
    "albumId" : "231",
    "title" : "Lost, Season 2",
    "artistId" : "149"
  },
  {
    "albumId" : "232",
    "title" : "Achtung Baby",
    "artistId" : "150"
  },
  {
    "albumId" : "233",
    "title" : "All That You Can't Leave Behind",
    "artistId" : "150"
  },
  {
    "albumId" : "234",
    "title" : "B-Sides 1980-1990",
    "artistId" : "150"
  },
  {
    "albumId" : "235",
    "title" : "How To Dismantle An Atomic Bomb",
    "artistId" : "150"
  },
  {
    "albumId" : "236",
    "title" : "Pop",
    "artistId" : "150"
  },
  {
    "albumId" : "237",
    "title" : "Rattle And Hum",
    "artistId" : "150"
  },
  {
    "albumId" : "238",
    "title" : "The Best Of 1980-1990",
    "artistId" : "150"
  },
  {
    "albumId" : "239",
    "title" : "War",
    "artistId" : "150"
  },
  {
    "albumId" : "240",
    "title" : "Zooropa",
    "artistId" : "150"
  },
  {
    "albumId" : "241",
    "title" : "UB40 The Best Of - Volume Two [UK]",
    "artistId" : "151"
  },
  {
    "albumId" : "242",
    "title" : "Diver Down",
    "artistId" : "152"
  },
  {
    "albumId" : "243",
    "title" : "The Best Of Van Halen, Vol. I",
    "artistId" : "152"
  },
  {
    "albumId" : "244",
    "title" : "Van Halen",
    "artistId" : "152"
  },
  {
    "albumId" : "245",
    "title" : "Van Halen III",
    "artistId" : "152"
  },
  {
    "albumId" : "246",
    "title" : "Contraband",
    "artistId" : "153"
  },
  {
    "albumId" : "247",
    "title" : "Vinicius De Moraes",
    "artistId" : "72"
  },
  {
    "albumId" : "248",
    "title" : "Ao Vivo [IMPORT]",
    "artistId" : "155"
  },
  {
    "albumId" : "249",
    "title" : "The Office, Season 1",
    "artistId" : "156"
  },
  {
    "albumId" : "250",
    "title" : "The Office, Season 2",
    "artistId" : "156"
  },
  {
    "albumId" : "251",
    "title" : "The Office, Season 3",
    "artistId" : "156"
  },
  {
    "albumId" : "252",
    "title" : "Un-Led-Ed",
    "artistId" : "157"
  },
  {
    "albumId" : "253",
    "title" : "Battlestar Galactica (Classic), Season 1",
    "artistId" : "158"
  },
  {
    "albumId" : "254",
    "title" : "Aquaman",
    "artistId" : "159"
  },
  {
    "albumId" : "255",
    "title" : "Instant Karma: The Amnesty International Campaign to Save Darfur",
    "artistId" : "150"
  },
  {
    "albumId" : "256",
    "title" : "Speak of the Devil",
    "artistId" : "114"
  },
  {
    "albumId" : "257",
    "title" : "20th Century Masters - The Millennium Collection: The Best of Scorpions",
    "artistId" : "179"
  },
  {
    "albumId" : "258",
    "title" : "House of Pain",
    "artistId" : "180"
  },
  {
    "albumId" : "259",
    "title" : "Radio Brasil (O Som da Jovem Vanguarda) - Seleccao de Henrique Amaro",
    "artistId" : "36"
  },
  {
    "albumId" : "260",
    "title" : "Cake: B-Sides and Rarities",
    "artistId" : "196"
  },
  {
    "albumId" : "261",
    "title" : "LOST, Season 4",
    "artistId" : "149"
  },
  {
    "albumId" : "262",
    "title" : "Quiet Songs",
    "artistId" : "197"
  },
  {
    "albumId" : "263",
    "title" : "Muso Ko",
    "artistId" : "198"
  },
  {
    "albumId" : "264",
    "title" : "Realize",
    "artistId" : "199"
  },
  {
    "albumId" : "265",
    "title" : "Every Kind of Light",
    "artistId" : "200"
  },
  {
    "albumId" : "266",
    "title" : "Duos II",
    "artistId" : "201"
  },
  {
    "albumId" : "267",
    "title" : "Worlds",
    "artistId" : "202"
  },
  {
    "albumId" : "268",
    "title" : "The Best of Beethoven",
    "artistId" : "203"
  },
  {
    "albumId" : "269",
    "title" : "Temple of the Dog",
    "artistId" : "204"
  },
  {
    "albumId" : "270",
    "title" : "Carry On",
    "artistId" : "205"
  },
  {
    "albumId" : "271",
    "title" : "Revelations",
    "artistId" : "8"
  },
  {
    "albumId" : "272",
    "title" : "Adorate Deum: Gregorian Chant from the Proper of the Mass",
    "artistId" : "206"
  },
  {
    "albumId" : "273",
    "title" : "Allegri: Miserere",
    "artistId" : "207"
  },
  {
    "albumId" : "274",
    "title" : "Pachelbel: Canon & Gigue",
    "artistId" : "208"
  },
  {
    "albumId" : "275",
    "title" : "Vivaldi: The Four Seasons",
    "artistId" : "209"
  },
  {
    "albumId" : "276",
    "title" : "Bach: Violin Concertos",
    "artistId" : "210"
  },
  {
    "albumId" : "277",
    "title" : "Bach: Goldberg Variations",
    "artistId" : "211"
  },
  {
    "albumId" : "278",
    "title" : "Bach: The Cello Suites",
    "artistId" : "212"
  },
  {
    "albumId" : "279",
    "title" : "Handel: The Messiah (Highlights)",
    "artistId" : "213"
  },
  {
    "albumId" : "280",
    "title" : "The World of Classical Favourites",
    "artistId" : "214"
  },
  {
    "albumId" : "281",
    "title" : "Sir Neville Marriner: A Celebration",
    "artistId" : "215"
  },
  {
    "albumId" : "282",
    "title" : "Mozart: Wind Concertos",
    "artistId" : "216"
  },
  {
    "albumId" : "283",
    "title" : "Haydn: Symphonies 99 - 104",
    "artistId" : "217"
  },
  {
    "albumId" : "284",
    "title" : "Beethoven: Symhonies Nos. 5 & 6",
    "artistId" : "218"
  },
  {
    "albumId" : "285",
    "title" : "A Soprano Inspired",
    "artistId" : "219"
  },
  {
    "albumId" : "286",
    "title" : "Great Opera Choruses",
    "artistId" : "220"
  },
  {
    "albumId" : "287",
    "title" : "Wagner: Favourite Overtures",
    "artistId" : "221"
  },
  {
    "albumId" : "288",
    "title" : "Fauré: Requiem, Ravel: Pavane & Others",
    "artistId" : "222"
  },
  {
    "albumId" : "289",
    "title" : "Tchaikovsky: The Nutcracker",
    "artistId" : "223"
  },
  {
    "albumId" : "290",
    "title" : "The Last Night of the Proms",
    "artistId" : "224"
  },
  {
    "albumId" : "291",
    "title" : "Puccini: Madama Butterfly - Highlights",
    "artistId" : "225"
  },
  {
    "albumId" : "292",
    "title" : "Holst: The Planets, Op. 32 & Vaughan Williams: Fantasies",
    "artistId" : "226"
  },
  {
    "albumId" : "293",
    "title" : "Pavarotti's Opera Made Easy",
    "artistId" : "227"
  },
  {
    "albumId" : "294",
    "title" : "Great Performances - Barber's Adagio and Other Romantic Favorites for Strings",
    "artistId" : "228"
  },
  {
    "albumId" : "295",
    "title" : "Carmina Burana",
    "artistId" : "229"
  },
  {
    "albumId" : "296",
    "title" : "A Copland Celebration, Vol. I",
    "artistId" : "230"
  },
  {
    "albumId" : "297",
    "title" : "Bach: Toccata & Fugue in D Minor",
    "artistId" : "231"
  },
  {
    "albumId" : "298",
    "title" : "Prokofiev: Symphony No.1",
    "artistId" : "232"
  },
  {
    "albumId" : "299",
    "title" : "Scheherazade",
    "artistId" : "233"
  },
  {
    "albumId" : "300",
    "title" : "Bach: The Brandenburg Concertos",
    "artistId" : "234"
  },
  {
    "albumId" : "301",
    "title" : "Chopin: Piano Concertos Nos. 1 & 2",
    "artistId" : "235"
  },
  {
    "albumId" : "302",
    "title" : "Mascagni: Cavalleria Rusticana",
    "artistId" : "236"
  },
  {
    "albumId" : "303",
    "title" : "Sibelius: Finlandia",
    "artistId" : "237"
  },
  {
    "albumId" : "304",
    "title" : "Beethoven Piano Sonatas: Moonlight & Pastorale",
    "artistId" : "238"
  },
  {
    "albumId" : "305",
    "title" : "Great Recordings of the Century - Mahler: Das Lied von der Erde",
    "artistId" : "240"
  },
  {
    "albumId" : "306",
    "title" : "Elgar: Cello Concerto & Vaughan Williams: Fantasias",
    "artistId" : "241"
  },
  {
    "albumId" : "307",
    "title" : "Adams, John: The Chairman Dances",
    "artistId" : "242"
  },
  {
    "albumId" : "308",
    "title" : "Tchaikovsky: 1812 Festival Overture, Op.49, Capriccio Italien & Beethoven: Wellington's Victory",
    "artistId" : "243"
  },
  {
    "albumId" : "309",
    "title" : "Palestrina: Missa Papae Marcelli & Allegri: Miserere",
    "artistId" : "244"
  },
  {
    "albumId" : "310",
    "title" : "Prokofiev: Romeo & Juliet",
    "artistId" : "245"
  },
  {
    "albumId" : "311",
    "title" : "Strauss: Waltzes",
    "artistId" : "226"
  },
  {
    "albumId" : "312",
    "title" : "Berlioz: Symphonie Fantastique",
    "artistId" : "245"
  },
  {
    "albumId" : "313",
    "title" : "Bizet: Carmen Highlights",
    "artistId" : "246"
  },
  {
    "albumId" : "314",
    "title" : "English Renaissance",
    "artistId" : "247"
  },
  {
    "albumId" : "315",
    "title" : "Handel: Music for the Royal Fireworks (Original Version 1749)",
    "artistId" : "208"
  },
  {
    "albumId" : "316",
    "title" : "Grieg: Peer Gynt Suites & Sibelius: Pelléas et Mélisande",
    "artistId" : "248"
  },
  {
    "albumId" : "317",
    "title" : "Mozart Gala: Famous Arias",
    "artistId" : "249"
  },
  {
    "albumId" : "318",
    "title" : "SCRIABIN: Vers la flamme",
    "artistId" : "250"
  },
  {
    "albumId" : "319",
    "title" : "Armada: Music from the Courts of England and Spain",
    "artistId" : "251"
  },
  {
    "albumId" : "320",
    "title" : "Mozart: Symphonies Nos. 40 & 41",
    "artistId" : "248"
  },
  {
    "albumId" : "321",
    "title" : "Back to Black",
    "artistId" : "252"
  },
  {
    "albumId" : "322",
    "title" : "Frank",
    "artistId" : "252"
  },
  {
    "albumId" : "323",
    "title" : "Carried to Dust (Bonus Track Version)",
    "artistId" : "253"
  },
  {
    "albumId" : "324",
    "title" : "Beethoven: Symphony No. 6 'Pastoral' Etc.",
    "artistId" : "254"
  },
  {
    "albumId" : "325",
    "title" : "Bartok: Violin & Viola Concertos",
    "artistId" : "255"
  },
  {
    "albumId" : "326",
    "title" : "Mendelssohn: A Midsummer Night's Dream",
    "artistId" : "256"
  },
  {
    "albumId" : "327",
    "title" : "Bach: Orchestral Suites Nos. 1 - 4",
    "artistId" : "257"
  },
  {
    "albumId" : "328",
    "title" : "Charpentier: Divertissements, Airs & Concerts",
    "artistId" : "258"
  },
  {
    "albumId" : "329",
    "title" : "South American Getaway",
    "artistId" : "259"
  },
  {
    "albumId" : "330",
    "title" : "Górecki: Symphony No. 3",
    "artistId" : "260"
  },
  {
    "albumId" : "331",
    "title" : "Purcell: The Fairy Queen",
    "artistId" : "261"
  },
  {
    "albumId" : "332",
    "title" : "The Ultimate Relexation Album",
    "artistId" : "262"
  },
  {
    "albumId" : "333",
    "title" : "Purcell: Music for the Queen Mary",
    "artistId" : "263"
  },
  {
    "albumId" : "334",
    "title" : "Weill: The Seven Deadly Sins",
    "artistId" : "264"
  },
  {
    "albumId" : "335",
    "title" : "J.S. Bach: Chaconne, Suite in E Minor, Partita in E Major & Prelude, Fugue and Allegro",
    "artistId" : "265"
  },
  {
    "albumId" : "336",
    "title" : "Prokofiev: Symphony No.5 & Stravinksy: Le Sacre Du Printemps",
    "artistId" : "248"
  },
  {
    "albumId" : "337",
    "title" : "Szymanowski: Piano Works, Vol. 1",
    "artistId" : "266"
  },
  {
    "albumId" : "338",
    "title" : "Nielsen: The Six Symphonies",
    "artistId" : "267"
  },
  {
    "albumId" : "339",
    "title" : "Great Recordings of the Century: Paganini's 24 Caprices",
    "artistId" : "268"
  },
  {
    "albumId" : "340",
    "title" : "Liszt - 12 Études D'Execution Transcendante",
    "artistId" : "269"
  },
  {
    "albumId" : "341",
    "title" : "Great Recordings of the Century - Shubert: Schwanengesang, 4 Lieder",
    "artistId" : "270"
  },
  {
    "albumId" : "342",
    "title" : "Locatelli: Concertos for Violin, Strings and Continuo, Vol. 3",
    "artistId" : "271"
  },
  {
    "albumId" : "343",
    "title" : "Respighi:Pines of Rome",
    "artistId" : "226"
  },
  {
    "albumId" : "344",
    "title" : "Schubert: The Late String Quartets & String Quintet (3 CD's)",
    "artistId" : "272"
  },
  {
    "albumId" : "345",
    "title" : "Monteverdi: L'Orfeo",
    "artistId" : "273"
  },
  {
    "albumId" : "346",
    "title" : "Mozart: Chamber Music",
    "artistId" : "274"
  },
  {
    "albumId" : "347",
    "title" : "Koyaanisqatsi (Soundtrack from the Motion Picture)",
    "artistId" : "275"
  }
]