[
  {
    "city" : "São José dos Campos",
    "email" : "luisg@embraer.com.br",
    "fax" : "+55 (12) 3923-5566",
    "state" : "SP",
    "supportRepId" : "3",
    "phone" : "+55 (12) 3923-5555",
    "firstName" : "Luís",
    "company" : "Embraer - Empresa Brasileira de Aeronáutica S.A.",
    "customerId" : "1",
    "address" : "Av. Brigadeiro Faria Lima, 2170",
    "postalCode" : "12227-000",
    "lastName" : "Gonçalves",
    "country" : "Brazil"
  },
  {
    "city" : "Stuttgart",
    "email" : "leonekohler@surfeu.de",
    "fax" : null,
    "state" : null,
    "supportRepId" : "5",
    "phone" : "+49 0711 2842222",
    "firstName" : "Leonie",
    "company" : null,
    "customerId" : "2",
    "address" : "Theodor-Heuss-Straße 34",
    "postalCode" : "70174",
    "lastName" : "Köhler",
    "country" : "Germany"
  },
  {
    "city" : "Montréal",
    "email" : "ftremblay@gmail.com",
    "fax" : null,
    "state" : "QC",
    "supportRepId" : "3",
    "phone" : "+1 (514) 721-4711",
    "firstName" : "François",
    "company" : null,
    "customerId" : "3",
    "address" : "1498 rue Bélanger",
    "postalCode" : "H2G 1A7",
    "lastName" : "Tremblay",
    "country" : "Canada"
  },
  {
    "city" : "Oslo",
    "email" : "bjorn.hansen@yahoo.no",
    "fax" : null,
    "state" : null,
    "supportRepId" : "4",
    "phone" : "+47 22 44 22 22",
    "firstName" : "Bjørn",
    "company" : null,
    "customerId" : "4",
    "address" : "Ullevålsveien 14",
    "postalCode" : "0171",
    "lastName" : "Hansen",
    "country" : "Norway"
  },
  {
    "city" : "Prague",
    "email" : "frantisekw@jetbrains.com",
    "fax" : "+420 2 4172 5555",
    "state" : null,
    "supportRepId" : "4",
    "phone" : "+420 2 4172 5555",
    "firstName" : "František",
    "company" : "JetBrains s.r.o.",
    "customerId" : "5",
    "address" : "Klanova 9\/506",
    "postalCode" : "14700",
    "lastName" : "Wichterlová",
    "country" : "Czech Republic"
  },
  {
    "city" : "Prague",
    "email" : "hholy@gmail.com",
    "fax" : null,
    "state" : null,
    "supportRepId" : "5",
    "phone" : "+420 2 4177 0449",
    "firstName" : "Helena",
    "company" : null,
    "customerId" : "6",
    "address" : "Rilská 3174\/6",
    "postalCode" : "14300",
    "lastName" : "Holý",
    "country" : "Czech Republic"
  },
  {
    "city" : "Vienne",
    "email" : "astrid.gruber@apple.at",
    "fax" : null,
    "state" : null,
    "supportRepId" : "5",
    "phone" : "+43 01 5134505",
    "firstName" : "Astrid",
    "company" : null,
    "customerId" : "7",
    "address" : "Rotenturmstraße 4, 1010 Innere Stadt",
    "postalCode" : "1010",
    "lastName" : "Gruber",
    "country" : "Austria"
  },
  {
    "city" : "Brussels",
    "email" : "daan_peeters@apple.be",
    "fax" : null,
    "state" : null,
    "supportRepId" : "4",
    "phone" : "+32 02 219 03 03",
    "firstName" : "Daan",
    "company" : null,
    "customerId" : "8",
    "address" : "Grétrystraat 63",
    "postalCode" : "1000",
    "lastName" : "Peeters",
    "country" : "Belgium"
  },
  {
    "city" : "Copenhagen",
    "email" : "kara.nielsen@jubii.dk",
    "fax" : null,
    "state" : null,
    "supportRepId" : "4",
    "phone" : "+453 3331 9991",
    "firstName" : "Kara",
    "company" : null,
    "customerId" : "9",
    "address" : "Sønder Boulevard 51",
    "postalCode" : "1720",
    "lastName" : "Nielsen",
    "country" : "Denmark"
  },
  {
    "city" : "São Paulo",
    "email" : "eduardo@woodstock.com.br",
    "fax" : "+55 (11) 3033-4564",
    "state" : "SP",
    "supportRepId" : "4",
    "phone" : "+55 (11) 3033-5446",
    "firstName" : "Eduardo",
    "company" : "Woodstock Discos",
    "customerId" : "10",
    "address" : "Rua Dr. Falcão Filho, 155",
    "postalCode" : "01007-010",
    "lastName" : "Martins",
    "country" : "Brazil"
  },
  {
    "city" : "São Paulo",
    "email" : "alero@uol.com.br",
    "fax" : "+55 (11) 3055-8131",
    "state" : "SP",
    "supportRepId" : "5",
    "phone" : "+55 (11) 3055-3278",
    "firstName" : "Alexandre",
    "company" : "Banco do Brasil S.A.",
    "customerId" : "11",
    "address" : "Av. Paulista, 2022",
    "postalCode" : "01310-200",
    "lastName" : "Rocha",
    "country" : "Brazil"
  },
  {
    "city" : "Rio de Janeiro",
    "email" : "roberto.almeida@riotur.gov.br",
    "fax" : "+55 (21) 2271-7070",
    "state" : "RJ",
    "supportRepId" : "3",
    "phone" : "+55 (21) 2271-7000",
    "firstName" : "Roberto",
    "company" : "Riotur",
    "customerId" : "12",
    "address" : "Praça Pio X, 119",
    "postalCode" : "20040-020",
    "lastName" : "Almeida",
    "country" : "Brazil"
  },
  {
    "city" : "Brasília",
    "email" : "fernadaramos4@uol.com.br",
    "fax" : "+55 (61) 3363-7855",
    "state" : "DF",
    "supportRepId" : "4",
    "phone" : "+55 (61) 3363-5547",
    "firstName" : "Fernanda",
    "company" : null,
    "customerId" : "13",
    "address" : "Qe 7 Bloco G",
    "postalCode" : "71020-677",
    "lastName" : "Ramos",
    "country" : "Brazil"
  },
  {
    "city" : "Edmonton",
    "email" : "mphilips12@shaw.ca",
    "fax" : "+1 (780) 434-5565",
    "state" : "AB",
    "supportRepId" : "5",
    "phone" : "+1 (780) 434-4554",
    "firstName" : "Mark",
    "company" : "Telus",
    "customerId" : "14",
    "address" : "8210 111 ST NW",
    "postalCode" : "T6G 2C7",
    "lastName" : "Philips",
    "country" : "Canada"
  },
  {
    "city" : "Vancouver",
    "email" : "jenniferp@rogers.ca",
    "fax" : "+1 (604) 688-8756",
    "state" : "BC",
    "supportRepId" : "3",
    "phone" : "+1 (604) 688-2255",
    "firstName" : "Jennifer",
    "company" : "Rogers Canada",
    "customerId" : "15",
    "address" : "700 W Pender Street",
    "postalCode" : "V6C 1G8",
    "lastName" : "Peterson",
    "country" : "Canada"
  },
  {
    "city" : "Mountain View",
    "email" : "fharris@google.com",
    "fax" : "+1 (650) 253-0000",
    "state" : "CA",
    "supportRepId" : "4",
    "phone" : "+1 (650) 253-0000",
    "firstName" : "Frank",
    "company" : "Google Inc.",
    "customerId" : "16",
    "address" : "1600 Amphitheatre Parkway",
    "postalCode" : "94043-1351",
    "lastName" : "Harris",
    "country" : "USA"
  },
  {
    "city" : "Redmond",
    "email" : "jacksmith@microsoft.com",
    "fax" : "+1 (425) 882-8081",
    "state" : "WA",
    "supportRepId" : "5",
    "phone" : "+1 (425) 882-8080",
    "firstName" : "Jack",
    "company" : "Microsoft Corporation",
    "customerId" : "17",
    "address" : "1 Microsoft Way",
    "postalCode" : "98052-8300",
    "lastName" : "Smith",
    "country" : "USA"
  },
  {
    "city" : "New York",
    "email" : "michelleb@aol.com",
    "fax" : "+1 (212) 221-4679",
    "state" : "NY",
    "supportRepId" : "3",
    "phone" : "+1 (212) 221-3546",
    "firstName" : "Michelle",
    "company" : null,
    "customerId" : "18",
    "address" : "627 Broadway",
    "postalCode" : "10012-2612",
    "lastName" : "Brooks",
    "country" : "USA"
  },
  {
    "city" : "Cupertino",
    "email" : "tgoyer@apple.com",
    "fax" : "+1 (408) 996-1011",
    "state" : "CA",
    "supportRepId" : "3",
    "phone" : "+1 (408) 996-1010",
    "firstName" : "Tim",
    "company" : "Apple Inc.",
    "customerId" : "19",
    "address" : "1 Infinite Loop",
    "postalCode" : "95014",
    "lastName" : "Goyer",
    "country" : "USA"
  },
  {
    "city" : "Mountain View",
    "email" : "dmiller@comcast.com",
    "fax" : null,
    "state" : "CA",
    "supportRepId" : "4",
    "phone" : "+1 (650) 644-3358",
    "firstName" : "Dan",
    "company" : null,
    "customerId" : "20",
    "address" : "541 Del Medio Avenue",
    "postalCode" : "94040-111",
    "lastName" : "Miller",
    "country" : "USA"
  },
  {
    "city" : "Reno",
    "email" : "kachase@hotmail.com",
    "fax" : null,
    "state" : "NV",
    "supportRepId" : "5",
    "phone" : "+1 (775) 223-7665",
    "firstName" : "Kathy",
    "company" : null,
    "customerId" : "21",
    "address" : "801 W 4th Street",
    "postalCode" : "89503",
    "lastName" : "Chase",
    "country" : "USA"
  },
  {
    "city" : "Orlando",
    "email" : "hleacock@gmail.com",
    "fax" : null,
    "state" : "FL",
    "supportRepId" : "4",
    "phone" : "+1 (407) 999-7788",
    "firstName" : "Heather",
    "company" : null,
    "customerId" : "22",
    "address" : "120 S Orange Ave",
    "postalCode" : "32801",
    "lastName" : "Leacock",
    "country" : "USA"
  },
  {
    "city" : "Boston",
    "email" : "johngordon22@yahoo.com",
    "fax" : null,
    "state" : "MA",
    "supportRepId" : "4",
    "phone" : "+1 (617) 522-1333",
    "firstName" : "John",
    "company" : null,
    "customerId" : "23",
    "address" : "69 Salem Street",
    "postalCode" : "2113",
    "lastName" : "Gordon",
    "country" : "USA"
  },
  {
    "city" : "Chicago",
    "email" : "fralston@gmail.com",
    "fax" : null,
    "state" : "IL",
    "supportRepId" : "3",
    "phone" : "+1 (312) 332-3232",
    "firstName" : "Frank",
    "company" : null,
    "customerId" : "24",
    "address" : "162 E Superior Street",
    "postalCode" : "60611",
    "lastName" : "Ralston",
    "country" : "USA"
  },
  {
    "city" : "Madison",
    "email" : "vstevens@yahoo.com",
    "fax" : null,
    "state" : "WI",
    "supportRepId" : "5",
    "phone" : "+1 (608) 257-0597",
    "firstName" : "Victor",
    "company" : null,
    "customerId" : "25",
    "address" : "319 N. Frances Street",
    "postalCode" : "53703",
    "lastName" : "Stevens",
    "country" : "USA"
  },
  {
    "city" : "Fort Worth",
    "email" : "ricunningham@hotmail.com",
    "fax" : null,
    "state" : "TX",
    "supportRepId" : "4",
    "phone" : "+1 (817) 924-7272",
    "firstName" : "Richard",
    "company" : null,
    "customerId" : "26",
    "address" : "2211 W Berry Street",
    "postalCode" : "76110",
    "lastName" : "Cunningham",
    "country" : "USA"
  },
  {
    "city" : "Tucson",
    "email" : "patrick.gray@aol.com",
    "fax" : null,
    "state" : "AZ",
    "supportRepId" : "4",
    "phone" : "+1 (520) 622-4200",
    "firstName" : "Patrick",
    "company" : null,
    "customerId" : "27",
    "address" : "1033 N Park Ave",
    "postalCode" : "85719",
    "lastName" : "Gray",
    "country" : "USA"
  },
  {
    "city" : "Salt Lake City",
    "email" : "jubarnett@gmail.com",
    "fax" : null,
    "state" : "UT",
    "supportRepId" : "5",
    "phone" : "+1 (801) 531-7272",
    "firstName" : "Julia",
    "company" : null,
    "customerId" : "28",
    "address" : "302 S 700 E",
    "postalCode" : "84102",
    "lastName" : "Barnett",
    "country" : "USA"
  },
  {
    "city" : "Toronto",
    "email" : "robbrown@shaw.ca",
    "fax" : null,
    "state" : "ON",
    "supportRepId" : "3",
    "phone" : "+1 (416) 363-8888",
    "firstName" : "Robert",
    "company" : null,
    "customerId" : "29",
    "address" : "796 Dundas Street West",
    "postalCode" : "M6J 1V1",
    "lastName" : "Brown",
    "country" : "Canada"
  },
  {
    "city" : "Ottawa",
    "email" : "edfrancis@yachoo.ca",
    "fax" : null,
    "state" : "ON",
    "supportRepId" : "3",
    "phone" : "+1 (613) 234-3322",
    "firstName" : "Edward",
    "company" : null,
    "customerId" : "30",
    "address" : "230 Elgin Street",
    "postalCode" : "K2P 1L7",
    "lastName" : "Francis",
    "country" : "Canada"
  },
  {
    "city" : "Halifax",
    "email" : "marthasilk@gmail.com",
    "fax" : null,
    "state" : "NS",
    "supportRepId" : "5",
    "phone" : "+1 (902) 450-0450",
    "firstName" : "Martha",
    "company" : null,
    "customerId" : "31",
    "address" : "194A Chain Lake Drive",
    "postalCode" : "B3S 1C5",
    "lastName" : "Silk",
    "country" : "Canada"
  },
  {
    "city" : "Winnipeg",
    "email" : "aaronmitchell@yahoo.ca",
    "fax" : null,
    "state" : "MB",
    "supportRepId" : "4",
    "phone" : "+1 (204) 452-6452",
    "firstName" : "Aaron",
    "company" : null,
    "customerId" : "32",
    "address" : "696 Osborne Street",
    "postalCode" : "R3L 2B9",
    "lastName" : "Mitchell",
    "country" : "Canada"
  },
  {
    "city" : "Yellowknife",
    "email" : "ellie.sullivan@shaw.ca",
    "fax" : null,
    "state" : "NT",
    "supportRepId" : "3",
    "phone" : "+1 (867) 920-2233",
    "firstName" : "Ellie",
    "company" : null,
    "customerId" : "33",
    "address" : "5112 48 Street",
    "postalCode" : "X1A 1N6",
    "lastName" : "Sullivan",
    "country" : "Canada"
  },
  {
    "city" : "Lisbon",
    "email" : "jfernandes@yahoo.pt",
    "fax" : null,
    "state" : null,
    "supportRepId" : "4",
    "phone" : "+351 (213) 466-111",
    "firstName" : "João",
    "company" : null,
    "customerId" : "34",
    "address" : "Rua da Assunção 53",
    "postalCode" : null,
    "lastName" : "Fernandes",
    "country" : "Portugal"
  },
  {
    "city" : "Porto",
    "email" : "masampaio@sapo.pt",
    "fax" : null,
    "state" : null,
    "supportRepId" : "4",
    "phone" : "+351 (225) 022-448",
    "firstName" : "Madalena",
    "company" : null,
    "customerId" : "35",
    "address" : "Rua dos Campeões Europeus de Viena, 4350",
    "postalCode" : null,
    "lastName" : "Sampaio",
    "country" : "Portugal"
  },
  {
    "city" : "Berlin",
    "email" : "hannah.schneider@yahoo.de",
    "fax" : null,
    "state" : null,
    "supportRepId" : "5",
    "phone" : "+49 030 26550280",
    "firstName" : "Hannah",
    "company" : null,
    "customerId" : "36",
    "address" : "Tauentzienstraße 8",
    "postalCode" : "10789",
    "lastName" : "Schneider",
    "country" : "Germany"
  },
  {
    "city" : "Frankfurt",
    "email" : "fzimmermann@yahoo.de",
    "fax" : null,
    "state" : null,
    "supportRepId" : "3",
    "phone" : "+49 069 40598889",
    "firstName" : "Fynn",
    "company" : null,
    "customerId" : "37",
    "address" : "Berger Straße 10",
    "postalCode" : "60316",
    "lastName" : "Zimmermann",
    "country" : "Germany"
  },
  {
    "city" : "Berlin",
    "email" : "nschroder@surfeu.de",
    "fax" : null,
    "state" : null,
    "supportRepId" : "3",
    "phone" : "+49 030 2141444",
    "firstName" : "Niklas",
    "company" : null,
    "customerId" : "38",
    "address" : "Barbarossastraße 19",
    "postalCode" : "10779",
    "lastName" : "Schröder",
    "country" : "Germany"
  },
  {
    "city" : "Paris",
    "email" : "camille.bernard@yahoo.fr",
    "fax" : null,
    "state" : null,
    "supportRepId" : "4",
    "phone" : "+33 01 49 70 65 65",
    "firstName" : "Camille",
    "company" : null,
    "customerId" : "39",
    "address" : "4, Rue Milton",
    "postalCode" : "75009",
    "lastName" : "Bernard",
    "country" : "France"
  },
  {
    "city" : "Paris",
    "email" : "dominiquelefebvre@gmail.com",
    "fax" : null,
    "state" : null,
    "supportRepId" : "4",
    "phone" : "+33 01 47 42 71 71",
    "firstName" : "Dominique",
    "company" : null,
    "customerId" : "40",
    "address" : "8, Rue Hanovre",
    "postalCode" : "75002",
    "lastName" : "Lefebvre",
    "country" : "France"
  },
  {
    "city" : "Lyon",
    "email" : "marc.dubois@hotmail.com",
    "fax" : null,
    "state" : null,
    "supportRepId" : "5",
    "phone" : "+33 04 78 30 30 30",
    "firstName" : "Marc",
    "company" : null,
    "customerId" : "41",
    "address" : "11, Place Bellecour",
    "postalCode" : "69002",
    "lastName" : "Dubois",
    "country" : "France"
  },
  {
    "city" : "Bordeaux",
    "email" : "wyatt.girard@yahoo.fr",
    "fax" : null,
    "state" : null,
    "supportRepId" : "3",
    "phone" : "+33 05 56 96 96 96",
    "firstName" : "Wyatt",
    "company" : null,
    "customerId" : "42",
    "address" : "9, Place Louis Barthou",
    "postalCode" : "33000",
    "lastName" : "Girard",
    "country" : "France"
  },
  {
    "city" : "Dijon",
    "email" : "isabelle_mercier@apple.fr",
    "fax" : null,
    "state" : null,
    "supportRepId" : "3",
    "phone" : "+33 03 80 73 66 99",
    "firstName" : "Isabelle",
    "company" : null,
    "customerId" : "43",
    "address" : "68, Rue Jouvence",
    "postalCode" : "21000",
    "lastName" : "Mercier",
    "country" : "France"
  },
  {
    "city" : "Helsinki",
    "email" : "terhi.hamalainen@apple.fi",
    "fax" : null,
    "state" : null,
    "supportRepId" : "3",
    "phone" : "+358 09 870 2000",
    "firstName" : "Terhi",
    "company" : null,
    "customerId" : "44",
    "address" : "Porthaninkatu 9",
    "postalCode" : "00530",
    "lastName" : "Hämäläinen",
    "country" : "Finland"
  },
  {
    "city" : "Budapest",
    "email" : "ladislav_kovacs@apple.hu",
    "fax" : null,
    "state" : null,
    "supportRepId" : "3",
    "phone" : null,
    "firstName" : "Ladislav",
    "company" : null,
    "customerId" : "45",
    "address" : "Erzsébet krt. 58.",
    "postalCode" : "H-1073",
    "lastName" : "Kovács",
    "country" : "Hungary"
  },
  {
    "city" : "Dublin",
    "email" : "hughoreilly@apple.ie",
    "fax" : null,
    "state" : "Dublin",
    "supportRepId" : "3",
    "phone" : "+353 01 6792424",
    "firstName" : "Hugh",
    "company" : null,
    "customerId" : "46",
    "address" : "3 Chatham Street",
    "postalCode" : null,
    "lastName" : "O'Reilly",
    "country" : "Ireland"
  },
  {
    "city" : "Rome",
    "email" : "lucas.mancini@yahoo.it",
    "fax" : null,
    "state" : "RM",
    "supportRepId" : "5",
    "phone" : "+39 06 39733434",
    "firstName" : "Lucas",
    "company" : null,
    "customerId" : "47",
    "address" : "Via Degli Scipioni, 43",
    "postalCode" : "00192",
    "lastName" : "Mancini",
    "country" : "Italy"
  },
  {
    "city" : "Amsterdam",
    "email" : "johavanderberg@yahoo.nl",
    "fax" : null,
    "state" : "VV",
    "supportRepId" : "5",
    "phone" : "+31 020 6223130",
    "firstName" : "Johannes",
    "company" : null,
    "customerId" : "48",
    "address" : "Lijnbaansgracht 120bg",
    "postalCode" : "1016",
    "lastName" : "Van der Berg",
    "country" : "Netherlands"
  },
  {
    "city" : "Warsaw",
    "email" : "stanisław.wójcik@wp.pl",
    "fax" : null,
    "state" : null,
    "supportRepId" : "4",
    "phone" : "+48 22 828 37 39",
    "firstName" : "Stanisław",
    "company" : null,
    "customerId" : "49",
    "address" : "Ordynacka 10",
    "postalCode" : "00-358",
    "lastName" : "Wójcik",
    "country" : "Poland"
  },
  {
    "city" : "Madrid",
    "email" : "enrique_munoz@yahoo.es",
    "fax" : null,
    "state" : null,
    "supportRepId" : "5",
    "phone" : "+34 914 454 454",
    "firstName" : "Enrique",
    "company" : null,
    "customerId" : "50",
    "address" : "C\/ San Bernardo 85",
    "postalCode" : "28015",
    "lastName" : "Muñoz",
    "country" : "Spain"
  },
  {
    "city" : "Stockholm",
    "email" : "joakim.johansson@yahoo.se",
    "fax" : null,
    "state" : null,
    "supportRepId" : "5",
    "phone" : "+46 08-651 52 52",
    "firstName" : "Joakim",
    "company" : null,
    "customerId" : "51",
    "address" : "Celsiusg. 9",
    "postalCode" : "11230",
    "lastName" : "Johansson",
    "country" : "Sweden"
  },
  {
    "city" : "London",
    "email" : "emma_jones@hotmail.com",
    "fax" : null,
    "state" : null,
    "supportRepId" : "3",
    "phone" : "+44 020 7707 0707",
    "firstName" : "Emma",
    "company" : null,
    "customerId" : "52",
    "address" : "202 Hoxton Street",
    "postalCode" : "N1 5LH",
    "lastName" : "Jones",
    "country" : "United Kingdom"
  },
  {
    "city" : "London",
    "email" : "phil.hughes@gmail.com",
    "fax" : null,
    "state" : null,
    "supportRepId" : "3",
    "phone" : "+44 020 7976 5722",
    "firstName" : "Phil",
    "company" : null,
    "customerId" : "53",
    "address" : "113 Lupus St",
    "postalCode" : "SW1V 3EN",
    "lastName" : "Hughes",
    "country" : "United Kingdom"
  },
  {
    "city" : "Edinburgh ",
    "email" : "steve.murray@yahoo.uk",
    "fax" : null,
    "state" : null,
    "supportRepId" : "5",
    "phone" : "+44 0131 315 3300",
    "firstName" : "Steve",
    "company" : null,
    "customerId" : "54",
    "address" : "110 Raeburn Pl",
    "postalCode" : "EH4 1HH",
    "lastName" : "Murray",
    "country" : "United Kingdom"
  },
  {
    "city" : "Sidney",
    "email" : "mark.taylor@yahoo.au",
    "fax" : null,
    "state" : "NSW",
    "supportRepId" : "4",
    "phone" : "+61 (02) 9332 3633",
    "firstName" : "Mark",
    "company" : null,
    "customerId" : "55",
    "address" : "421 Bourke Street",
    "postalCode" : "2010",
    "lastName" : "Taylor",
    "country" : "Australia"
  },
  {
    "city" : "Buenos Aires",
    "email" : "diego.gutierrez@yahoo.ar",
    "fax" : null,
    "state" : null,
    "supportRepId" : "4",
    "phone" : "+54 (0)11 4311 4333",
    "firstName" : "Diego",
    "company" : null,
    "customerId" : "56",
    "address" : "307 Macacha Güemes",
    "postalCode" : "1106",
    "lastName" : "Gutiérrez",
    "country" : "Argentina"
  },
  {
    "city" : "Santiago",
    "email" : "luisrojas@yahoo.cl",
    "fax" : null,
    "state" : null,
    "supportRepId" : "5",
    "phone" : "+56 (0)2 635 4444",
    "firstName" : "Luis",
    "company" : null,
    "customerId" : "57",
    "address" : "Calle Lira, 198",
    "postalCode" : null,
    "lastName" : "Rojas",
    "country" : "Chile"
  },
  {
    "city" : "Delhi",
    "email" : "manoj.pareek@rediff.com",
    "fax" : null,
    "state" : null,
    "supportRepId" : "3",
    "phone" : "+91 0124 39883988",
    "firstName" : "Manoj",
    "company" : null,
    "customerId" : "58",
    "address" : "12,Community Centre",
    "postalCode" : "110017",
    "lastName" : "Pareek",
    "country" : "India"
  },
  {
    "city" : "Bangalore",
    "email" : "puja_srivastava@yahoo.in",
    "fax" : null,
    "state" : null,
    "supportRepId" : "3",
    "phone" : "+91 080 22289999",
    "firstName" : "Puja",
    "company" : null,
    "customerId" : "59",
    "address" : "3,Raj Bhavan Road",
    "postalCode" : "560001",
    "lastName" : "Srivastava",
    "country" : "India"
  }
]