[
  {
    "playlistId" : "1",
    "name" : "Music"
  },
  {
    "playlistId" : "2",
    "name" : "Movies"
  },
  {
    "playlistId" : "3",
    "name" : "TV Shows"
  },
  {
    "playlistId" : "4",
    "name" : "Audiobooks"
  },
  {
    "playlistId" : "5",
    "name" : "90’s Music"
  },
  {
    "playlistId" : "6",
    "name" : "Audiobooks"
  },
  {
    "playlistId" : "7",
    "name" : "Movies"
  },
  {
    "playlistId" : "8",
    "name" : "Music"
  },
  {
    "playlistId" : "9",
    "name" : "Music Videos"
  },
  {
    "playlistId" : "10",
    "name" : "TV Shows"
  },
  {
    "playlistId" : "11",
    "name" : "Brazilian Music"
  },
  {
    "playlistId" : "12",
    "name" : "Classical"
  },
  {
    "playlistId" : "13",
    "name" : "Classical 101 - Deep Cuts"
  },
  {
    "playlistId" : "14",
    "name" : "Classical 101 - Next Steps"
  },
  {
    "playlistId" : "15",
    "name" : "Classical 101 - The Basics"
  },
  {
    "playlistId" : "16",
    "name" : "Grunge"
  },
  {
    "playlistId" : "17",
    "name" : "Heavy Metal Classic"
  },
  {
    "playlistId" : "18",
    "name" : "On-The-Go 1"
  }
]